Project/data_BallOnIncline/rev_small1.csv

#Digilent WaveForms Oscilloscope Acquisition
#Device Name: Discovery2
#Serial Number: SN:210321A35EA5
#Date Time: 2025-12-01 11:35:19.014
#Sample rate: 20000Hz
#Samples: 47105
#Trigger: Source: Channel 1 Type: Edge Condition: Rising Level: 0 V Hyst.: Auto HoldOff: 100 ns
#Channel 1: Range: 1 V/div Offset: -1.6 V Attenuation: 1 X Sample Mode: Average
#Power Supplies: ON
#Positive Supply: ON
#Voltage: 5 V
#Negative Supply: ON
#Voltage: -1 V

Time (s),Channel 1 (V)
-6.5536,1.554819121888679
-6.55355,0.7945123355914704
-6.5535,0.7981501670938431
-6.55345,0.7981501670938431
-6.5534,0.7981501670938431
-6.55335,0.7981501670938431
-6.5533,0.7981501670938431
-6.55325,0.7981501670938431
-6.5532,0.7981501670938431
-6.55315,0.7981501670938431
-6.5531,0.7981501670938431
-6.55305,0.7981501670938431
-6.553,0.7981501670938431
-6.55295,0.7981501670938431
-6.5529,0.7981501670938431
-6.55285,0.7945123355804065
-6.5528,0.7981501670937902
-6.55275,0.7981501670938431
-6.5527,0.7981501670938431
-6.55265,0.7981501670938431
-6.5526,0.7981501670938431
-6.55255,0.7981501670938431
-6.5525,0.7981501670938431
-6.55245,0.7981501670938431
-6.5524,0.7981501670938431
-6.55235,0.7981501670938431
-6.5523,0.7981501670938431
-6.55225,0.7981501670938431
-6.5522,0.7981501670938431
-6.55215,0.7981501670938431
-6.5521,0.7981501670938431
-6.55205,0.7981501670938431
-6.552,0.7981501670938431
-6.55195,0.7981501670938431
-6.5519,0.7981501670938431
-6.55185,0.7981501670938431
-6.5518,0.7981501670938431
-6.55175,0.7981501670938431
-6.5517,0.7981501670938431
-6.55165,0.7981501670938431
-6.5516,0.7981501670938431
-6.55155,0.7981501670938431
-6.5515,0.7981501670938431
-6.55145,0.7981501670938431
-6.5514,0.7981501670938431
-6.55135,0.7981501670938431
-6.5513,0.7981501670938431
-6.55125,0.7981501670938431
-6.5512,0.7981501670938431
-6.55115,0.7981501670938431
-6.5511,0.7945123355804065
-6.55105,0.7981501670938431
-6.551,0.7981501670938431
-6.55095,0.7981501670938431
-6.5509,0.7981501670938431
-6.55085,0.7981501670938431
-6.5508,0.7981501670938431
-6.55075,0.7981501670938431
-6.5507,0.7945123355804065
-6.55065,0.7981501670938431
-6.5506,0.7981501670938431
-6.55055,0.7981501670938431
-6.5505,0.7981501670938431
-6.55045,0.7981501670938431
-6.5504,0.7981501670938431
-6.55035,0.7981501670938431
-6.5503,0.7981501670938431
-6.55025,0.7981501670938431
-6.5502,0.7981501670938431
-6.55015,0.7981501670938431
-6.5501,0.7981501670938431
-6.55005,0.7981501670938431
-6.55,0.7981501670938431
-6.54995,0.7981501670938431
-6.5499,0.7981501670938431
-6.54985,0.7981501670938431
-6.5498,0.7981501670938431
-6.54975,0.7981501670938431
-6.5497,0.7981501670937902
-6.54965,0.7945123355804065
-6.5496,0.7945123355804065
-6.54955,0.7981501670938431
-6.5495,0.7981501670938431
-6.54945,0.7981501670938431
-6.5494,0.7981501670938431
-6.54935,0.7981501670938431
-6.5493,0.7981501670938431
-6.54925,0.7981501670938431
-6.5492,0.7981501670938431
-6.54915,0.7981501670938431
-6.5491,0.7981501670938431
-6.54905,0.7981501670938431
-6.549,0.7981501670938431
-6.54895,0.7981501670938431
-6.5489,0.7981501670938431
-6.54885,0.7981501670938431
-6.5488,0.7981501670938431
-6.54875,0.7981501670938431
-6.5487,0.7981501670938431
-6.54865,0.7981501670938431
-6.5486,0.7981501670938431
-6.54855,0.7945123355804065
-6.5485,0.7981501670938431
-6.54845,0.7945123355804065
-6.5484,0.7981501670938431
-6.54835,0.7981501670938431
-6.5483,0.7981501670938431
-6.54825,0.7981501670938431
-6.5482,0.7981501670938431
-6.54815,0.7981501670938431
-6.5481,0.7981501670938431
-6.54805,0.7981501670938431
-6.548,0.7981501670938431
-6.54795,0.7981501670938431
-6.5479,0.7981501670938431
-6.54785,0.7981501670938431
-6.5478,0.7981501670938431
-6.54775,0.7981501670938431
-6.5477,0.7981501670938431
-6.54765,0.7981501670938431
-6.5476,0.7981501670938431
-6.54755,0.7981501670938431
-6.5475,0.7981501670938431
-6.54745,0.7981501670938431
-6.5474,0.7981501670938431
-6.54735,0.7981501670938431
-6.5473,0.7981501670938431
-6.54725,0.7981501670938431
-6.5472,0.7981501670938431
-6.54715,0.7981501670938431
-6.5471,0.7945123355804065
-6.54705,0.7981501670938431
-6.547,0.7981501670938431
-6.54695,0.7981501670938431
-6.5469,0.7981501670938431
-6.54685,0.7981501670938431
-6.5468,0.7981501670938431
-6.54675,0.7981501670938431
-6.5467,0.7945123355804594
-6.54665,0.7945123355804065
-6.5466,0.7981501670938431
-6.54655,0.7981501670938431
-6.5465,0.7981501670938431
-6.54645,0.7981501670938431
-6.5464,0.7981501670938431
-6.54635,0.7981501670938431
-6.5463,0.7981501670938431
-6.54625,0.7981501670938431
-6.5462,0.7981501670938431
-6.54615,0.7981501670938431
-6.5461,0.7945123355804065
-6.54605,0.7945123355804065
-6.546,0.7945123355804065
-6.54595,0.7981501670937902
-6.5459,0.7981501670938431
-6.54585,0.7981501670938431
-6.5458,0.7945123355804065
-6.54575,0.7981501670938431
-6.5457,0.7981501670938431
-6.54565,0.7981501670938431
-6.5456,0.7981501670938431
-6.54555,0.7981501670938431
-6.5455,0.7981501670938431
-6.54545,0.7981501670938431
-6.5454,0.7981501670938431
-6.54535,0.7981501670938431
-6.5453,0.7945123355804065
-6.54525,0.7981501670938431
-6.5452,0.7981501670938431
-6.54515,0.7981501670938431
-6.5451,0.7981501670938431
-6.54505,0.7981501670938431
-6.545,0.7981501670938431
-6.54495,0.7981501670938431
-6.5449,0.7981501670938431
-6.54485,0.7945123355804065
-6.5448,0.7981501670937902
-6.54475,0.7945123355804594
-6.5447,0.7981501670938431
-6.54465,0.7981501670938431
-6.5446,0.7945123355804065
-6.54455,0.7981501670938431
-6.5445,0.7945123355804065
-6.54445,0.7981501670938431
-6.5444,0.7981501670938431
-6.54435,0.7981501670938431
-6.5443,0.7981501670938431
-6.54425,0.7981501670938431
-6.5442,0.7981501670938431
-6.54415,0.7981501670938431
-6.5441,0.7981501670938431
-6.54405,0.7981501670938431
-6.544,0.7945123355804065
-6.54395,0.7945123355804065
-6.5439,0.7945123355804065
-6.54385,0.7981501670938431
-6.5438,0.7981501670938431
-6.54375,0.7981501670938431
-6.5437,0.7981501670938431
-6.54365,0.7981501670938431
-6.5436,0.7981501670938431
-6.54355,0.7981501670938431
-6.5435,0.7981501670938431
-6.54345,0.7981501670938431
-6.5434,0.7981501670938431
-6.54335,0.7981501670938431
-6.5433,0.7981501670938431
-6.54325,0.7981501670938431
-6.5432,0.7981501670938431
-6.54315,0.7981501670938431
-6.5431,0.7981501670938431
-6.54305,0.7981501670938431
-6.543,0.7981501670938431
-6.54295,0.7981501670938431
-6.5429,0.7981501670938431
-6.54285,0.7981501670938431
-6.5428,0.7981501670938431
-6.54275,0.7981501670938431
-6.5427,0.7981501670938431
-6.54265,0.7981501670938431
-6.5426,0.7981501670938431
-6.54255,0.7981501670938431
-6.5425,0.7981501670938431
-6.54245,0.7981501670938431
-6.5424,0.7981501670938431
-6.54235,0.7981501670938431
-6.5423,0.7981501670938431
-6.54225,0.7981501670938431
-6.5422,0.7981501670938431
-6.54215,0.7981501670938431
-6.5421,0.7981501670938431
-6.54205,0.7981501670938431
-6.542,0.7981501670938431
-6.54195,0.7981501670938431
-6.5419,0.7981501670938431
-6.54185,0.7981501670938431
-6.5418,0.7981501670938431
-6.54175,0.7981501670938431
-6.5417,0.7981501670938431
-6.54165,0.7981501670938431
-6.5416,0.7981501670938431
-6.54155,0.7981501670938431
-6.5415,0.7981501670938431
-6.54145,0.7981501670938431
-6.5414,0.7981501670938431
-6.54135,0.7981501670938431
-6.5413,0.7981501670938431
-6.54125,0.7981501670938431
-6.5412,0.7981501670938431
-6.54115,0.7981501670938431
-6.5411,0.7981501670938431
-6.54105,0.7981501670938431
-6.541,0.7981501670938431
-6.54095,0.7981501670938431
-6.5409,0.7981501670938431
-6.54085,0.7981501670938431
-6.5408,0.7981501670938431
-6.54075,0.7981501670938431
-6.5407,0.7981501670938431
-6.54065,0.7981501670938431
-6.5406,0.7981501670938431
-6.54055,0.7981501670938431
-6.5405,0.7981501670938431
-6.54045,0.7981501670938431
-6.5404,0.7981501670938431
-6.54035,0.7981501670938431
-6.5403,0.7945123355804065
-6.54025,0.7945123355804065
-6.5402,0.7981501670938431
-6.54015,0.7981501670938431
-6.5401,0.7981501670938431
-6.54005,0.7981501670938431
-6.54,0.7981501670938431
-6.53995,0.7981501670938431
-6.5399,0.7981501670938431
-6.53985,0.7981501670938431
-6.5398,0.7981501670938431
-6.53975,0.7981501670938431
-6.5397,0.7981501670938431
-6.53965,0.7981501670938431
-6.5396,0.7981501670938431
-6.53955,0.7981501670938431
-6.5395,0.7945123355804065
-6.53945,0.7981501670937902
-6.5394,0.7981501670938431
-6.53935,0.7981501670938431
-6.5393,0.7981501670938431
-6.53925,0.7981501670938431
-6.5392,0.7981501670938431
-6.53915,0.7981501670938431
-6.5391,0.7981501670938431
-6.53905,0.7981501670938431
-6.539,0.7981501670938431
-6.53895,0.7981501670938431
-6.5389,0.7945123355804065
-6.53885,0.7981501670938431
-6.5388,0.7981501670938431
-6.53875,0.7981501670938431
-6.5387,0.7981501670938431
-6.53865,0.7981501670938431
-6.5386,0.7981501670938431
-6.53855,0.7945123355804065
-6.5385,0.7981501670938431
-6.53845,0.7981501670938431
-6.5384,0.7981501670938431
-6.53835,0.7981501670938431
-6.5383,0.7981501670938431
-6.53825,0.7981501670938431
-6.5382,0.7981501670938431
-6.53815,0.7981501670938431
-6.5381,0.7981501670938431
-6.53805,0.7981501670938431
-6.538,0.7981501670938431
-6.53795,0.7981501670938431
-6.5379,0.7945123355804065
-6.53785,0.7945123355804065
-6.5378,0.7981501670938431
-6.53775,0.7981501670938431
-6.5377,0.7981501670938431
-6.53765,0.7981501670938431
-6.5376,0.7981501670938431
-6.53755,0.7981501670938431
-6.5375,0.7981501670938431
-6.53745,0.7981501670938431
-6.5374,0.7981501670938431
-6.53735,0.7981501670938431
-6.5373,0.7981501670938431
-6.53725,0.7981501670938431
-6.5372,0.7945123355804065
-6.53715,0.7981501670937902
-6.5371,0.7945123355804065
-6.53705,0.7981501670938431
-6.537,0.7981501670938431
-6.53695,0.7981501670938431
-6.5369,0.7981501670938431
-6.53685,0.7981501670938431
-6.5368,0.7945123355804594
-6.53675,0.7945123355804594
-6.5367,0.7981501670938431
-6.53665,0.7981501670938431
-6.5366,0.7981501670938431
-6.53655,0.7981501670938431
-6.5365,0.7981501670938431
-6.53645,0.7981501670938431
-6.5364,0.7981501670938431
-6.53635,0.7981501670938431
-6.5363,0.7981501670938431
-6.53625,0.7981501670938431
-6.5362,0.7981501670938431
-6.53615,0.7981501670938431
-6.5361,0.7981501670938431
-6.53605,0.7981501670938431
-6.536,0.7981501670938431
-6.53595,0.7981501670938431
-6.5359,0.7945123355804065
-6.53585,0.7981501670938431
-6.5358,0.7981501670938431
-6.53575,0.7981501670938431
-6.5357,0.7981501670938431
-6.53565,0.7981501670938431
-6.5356,0.7945123355804594
-6.53555,0.7981501670938431
-6.5355,0.7981501670938431
-6.53545,0.7981501670938431
-6.5354,0.7981501670938431
-6.53535,0.7981501670938431
-6.5353,0.7981501670938431
-6.53525,0.7981501670938431
-6.5352,0.7981501670938431
-6.53515,0.7981501670938431
-6.5351,0.7981501670938431
-6.53505,0.7981501670938431
-6.535,0.7981501670938431
-6.53495,0.7981501670938431
-6.5349,0.7981501670938431
-6.53485,0.7981501670938431
-6.5348,0.7981501670938431
-6.53475,0.7981501670938431
-6.5347,0.7981501670938431
-6.53465,0.7981501670938431
-6.5346,0.7981501670938431
-6.53455,0.7981501670938431
-6.5345,0.7981501670938431
-6.53445,0.7981501670938431
-6.5344,0.7981501670938431
-6.53435,0.7981501670938431
-6.5343,0.7981501670938431
-6.53425,0.7981501670938431
-6.5342,0.7945123355804065
-6.53415,0.7981501670938431
-6.5341,0.7981501670938431
-6.53405,0.7981501670938431
-6.534,0.7981501670938431
-6.53395,0.7981501670938431
-6.5339,0.7981501670938431
-6.53385,0.7981501670938431
-6.5338,0.7981501670938431
-6.53375,0.7981501670938431
-6.5337,0.7981501670938431
-6.53365,0.7981501670938431
-6.5336,0.7981501670938431
-6.53355,0.7981501670938431
-6.5335,0.7981501670938431
-6.53345,0.7981501670938431
-6.5334,0.7981501670938431
-6.53335,0.7981501670938431
-6.5333,0.7981501670938431
-6.53325,0.7981501670938431
-6.5332,0.7981501670938431
-6.53315,0.7981501670938431
-6.5331,0.8017879986072799
-6.53305,0.7981501670938431
-6.533,0.7981501670938431
-6.53295,0.7981501670938431
-6.5329,0.7981501670938431
-6.53285,0.7981501670938431
-6.5328,0.7981501670938431
-6.53275,0.7981501670938431
-6.5327,0.7981501670938431
-6.53265,0.7981501670938431
-6.5326,0.8017879986072269
-6.53255,0.7981501670938431
-6.5325,0.7981501670938431
-6.53245,0.7981501670938431
-6.5324,0.7981501670938431
-6.53235,0.7981501670938431
-6.5323,0.7981501670938431
-6.53225,0.7981501670938431
-6.5322,0.7981501670938431
-6.53215,0.7981501670938431
-6.5321,0.7981501670938431
-6.53205,0.7981501670938431
-6.532,0.7981501670938431
-6.53195,0.7981501670938431
-6.5319,0.7981501670938431
-6.53185,0.7981501670938431
-6.5318,0.7981501670938431
-6.53175,0.7981501670938431
-6.5317,0.7981501670938431
-6.53165,0.7981501670938431
-6.5316,0.7981501670938431
-6.53155,0.7981501670938431
-6.5315,0.7981501670938431
-6.53145,0.7981501670938431
-6.5314,0.7981501670938431
-6.53135,0.7981501670938431
-6.5313,0.7981501670938431
-6.53125,0.7981501670938431
-6.5312,0.7981501670938431
-6.53115,0.7981501670938431
-6.5311,0.7981501670938431
-6.53105,0.7981501670938431
-6.531,0.7981501670938431
-6.53095,0.7981501670938431
-6.5309,0.7981501670938431
-6.53085,0.7981501670938431
-6.5308,0.7981501670938431
-6.53075,0.7981501670938431
-6.5307,0.7981501670938431
-6.53065,0.7981501670938431
-6.5306,0.7981501670938431
-6.53055,0.7981501670938431
-6.5305,0.7981501670938431
-6.53045,0.7981501670938431
-6.5304,0.7981501670938431
-6.53035,0.7981501670938431
-6.5303,0.7981501670938431
-6.53025,0.7981501670938431
-6.5302,0.7981501670938431
-6.53015,0.7981501670938431
-6.5301,0.7981501670938431
-6.53005,0.7981501670938431
-6.53,0.7981501670938431
-6.52995,0.7981501670938431
-6.5299,0.7981501670938431
-6.52985,0.7981501670938431
-6.5298,0.7981501670938431
-6.52975,0.7981501670938431
-6.5297,0.7981501670938431
-6.52965,0.7981501670938431
-6.5296,0.7981501670938431
-6.52955,0.7981501670938431
-6.5295,0.7981501670938431
-6.52945,0.7981501670938431
-6.5294,0.7981501670938431
-6.52935,0.7981501670938431
-6.5293,0.7981501670938431
-6.52925,0.7981501670938431
-6.5292,0.7981501670938431
-6.52915,0.7981501670938431
-6.5291,0.7981501670938431
-6.52905,0.7981501670938431
-6.529,0.7981501670938431
-6.52895,0.7981501670938431
-6.5289,0.7981501670938431
-6.52885,0.7981501670938431
-6.5288,0.7981501670938431
-6.52875,0.7981501670938431
-6.5287,0.7981501670938431
-6.52865,0.7981501670938431
-6.5286,0.7981501670938431
-6.52855,0.7981501670938431
-6.5285,0.7981501670938431
-6.52845,0.7981501670938431
-6.5284,0.7981501670938431
-6.52835,0.7981501670938431
-6.5283,0.7981501670938431
-6.52825,0.7981501670938431
-6.5282,0.7981501670938431
-6.52815,0.7981501670938431
-6.5281,0.7981501670938431
-6.52805,0.7981501670938431
-6.528,0.7981501670938431
-6.52795,0.7981501670938431
-6.5279,0.7981501670938431
-6.52785,0.7981501670938431
-6.5278,0.7981501670938431
-6.52775,0.7981501670938431
-6.5277,0.7981501670938431
-6.52765,0.7981501670938431
-6.5276,0.7981501670938431
-6.52755,0.7981501670938431
-6.5275,0.7981501670938431
-6.52745,0.7981501670938431
-6.5274,0.7981501670938431
-6.52735,0.7981501670938431
-6.5273,0.7981501670938431
-6.52725,0.7981501670938431
-6.5272,0.7981501670938431
-6.52715,0.7981501670938431
-6.5271,0.7981501670938431
-6.52705,0.7981501670938431
-6.527,0.7981501670938431
-6.52695,0.7981501670938431
-6.5269,0.7981501670938431
-6.52685,0.7981501670938431
-6.5268,0.7981501670938431
-6.52675,0.7981501670938431
-6.5267,0.7981501670938431
-6.52665,0.7981501670938431
-6.5266,0.7981501670938431
-6.52655,0.7981501670938431
-6.5265,0.7981501670938431
-6.52645,0.7981501670938431
-6.5264,0.7981501670938431
-6.52635,0.7981501670938431
-6.5263,0.7981501670938431
-6.52625,0.7981501670938431
-6.5262,0.7981501670938431
-6.52615,0.7981501670938431
-6.5261,0.7981501670938431
-6.52605,0.7981501670938431
-6.526,0.7981501670938431
-6.52595,0.7981501670938431
-6.5259,0.7981501670938431
-6.52585,0.8017879986072799
-6.5258,0.7981501670938431
-6.52575,0.7981501670938431
-6.5257,0.7981501670938431
-6.52565,0.7981501670938431
-6.5256,0.7981501670938431
-6.52555,0.7981501670938431
-6.5255,0.7981501670938431
-6.52545,0.7981501670938431
-6.5254,0.7981501670938431
-6.52535,0.7981501670938431
-6.5253,0.7981501670938431
-6.52525,0.7981501670938431
-6.5252,0.7981501670938431
-6.52515,0.7981501670938431
-6.5251,0.7981501670938431
-6.52505,0.7981501670938431
-6.525,0.7981501670938431
-6.52495,0.7981501670938431
-6.5249,0.7981501670938431
-6.52485,0.7981501670938431
-6.5248,0.7981501670938431
-6.52475,0.7981501670938431
-6.5247,0.7981501670938431
-6.52465,0.7981501670938431
-6.5246,0.7981501670938431
-6.52455,0.7981501670938431
-6.5245,0.7981501670938431
-6.52445,0.7981501670938431
-6.5244,0.7981501670938431
-6.52435,0.7981501670938431
-6.5243,0.7981501670938431
-6.52425,0.7981501670938431
-6.5242,0.7981501670938431
-6.52415,0.7981501670938431
-6.5241,0.7981501670938431
-6.52405,0.7981501670938431
-6.524,0.7981501670938431
-6.52395,0.7981501670938431
-6.5239,0.7981501670938431
-6.52385,0.7981501670938431
-6.5238,0.7981501670938431
-6.52375,0.7981501670938431
-6.5237,0.7981501670938431
-6.52365,0.7981501670938431
-6.5236,0.7945123355804065
-6.52355,0.7981501670938431
-6.5235,0.7981501670938431
-6.52345,0.7981501670938431
-6.5234,0.7981501670938431
-6.52335,0.7981501670938431
-6.5233,0.7981501670938431
-6.52325,0.7981501670938431
-6.5232,0.7981501670938431
-6.52315,0.7981501670938431
-6.5231,0.7981501670938431
-6.52305,0.7981501670938431
-6.523,0.7981501670938431
-6.52295,0.7981501670938431
-6.5229,0.7981501670938431
-6.52285,0.7981501670938431
-6.5228,0.7981501670938431
-6.52275,0.7981501670938431
-6.5227,0.7981501670938431
-6.52265,0.7981501670938431
-6.5226,0.7981501670938431
-6.52255,0.7981501670938431
-6.5225,0.7981501670938431
-6.52245,0.7981501670938431
-6.5224,0.7981501670938431
-6.52235,0.7981501670938431
-6.5223,0.7981501670938431
-6.52225,0.7981501670938431
-6.5222,0.7981501670938431
-6.52215,0.7981501670938431
-6.5221,0.7981501670938431
-6.52205,0.7981501670938431
-6.522,0.7981501670938431
-6.52195,0.7981501670938431
-6.5219,0.7981501670938431
-6.52185,0.7981501670938431
-6.5218,0.7981501670938431
-6.52175,0.7981501670938431
-6.5217,0.7981501670938431
-6.52165,0.7981501670938431
-6.5216,0.7981501670938431
-6.52155,0.7981501670938431
-6.5215,0.7981501670938431
-6.52145,0.7981501670938431
-6.5214,0.7981501670938431
-6.52135,0.7981501670938431
-6.5213,0.7981501670938431
-6.52125,0.7981501670938431
-6.5212,0.7981501670938431
-6.52115,0.7981501670938431
-6.5211,0.7981501670938431
-6.52105,0.7981501670938431
-6.521,0.7981501670938431
-6.52095,0.7981501670938431
-6.5209,0.7981501670938431
-6.52085,0.7981501670938431
-6.5208,0.7981501670938431
-6.52075,0.7981501670938431
-6.5207,0.7981501670938431
-6.52065,0.7981501670938431
-6.5206,0.7981501670938431
-6.52055,0.7981501670938431
-6.5205,0.7981501670938431
-6.52045,0.7981501670938431
-6.5204,0.7981501670938431
-6.52035,0.7981501670938431
-6.5203,0.7981501670938431
-6.52025,0.7981501670938431
-6.5202,0.7981501670938431
-6.52015,0.7981501670938431
-6.5201,0.7981501670938431
-6.52005,0.7981501670938431
-6.52,0.7981501670938431
-6.51995,0.7981501670938431
-6.5199,0.7981501670938431
-6.51985,0.7981501670938431
-6.5198,0.7945123355804065
-6.51975,0.7981501670938431
-6.5197,0.7945123355804065
-6.51965,0.7981501670937902
-6.5196,0.7981501670938431
-6.51955,0.7981501670938431
-6.5195,0.7981501670938431
-6.51945,0.7981501670938431
-6.5194,0.7981501670938431
-6.51935,0.7981501670938431
-6.5193,0.7981501670938431
-6.51925,0.7981501670938431
-6.5192,0.7981501670938431
-6.51915,0.7981501670938431
-6.5191,0.7981501670938431
-6.51905,0.7981501670938431
-6.519,0.7981501670938431
-6.51895,0.7981501670938431
-6.5189,0.7981501670938431
-6.51885,0.7981501670938431
-6.5188,0.7981501670938431
-6.51875,0.7981501670938431
-6.5187,0.7981501670938431
-6.51865,0.7981501670938431
-6.5186,0.7981501670938431
-6.51855,0.7981501670938431
-6.5185,0.7981501670938431
-6.51845,0.7981501670938431
-6.5184,0.7981501670938431
-6.51835,0.7981501670938431
-6.5183,0.7981501670938431
-6.51825,0.7981501670938431
-6.5182,0.7981501670938431
-6.51815,0.7945123355804065
-6.5181,0.7981501670938431
